<mxfile host="app.diagrams.net" modified="2023-05-10T20:02:18.198Z" agent="Mozilla/5.0 (Windows NT 10.0; Win64; x64) AppleWebKit/537.36 (KHTML, like Gecko) Chrome/112.0.0.0 Safari/537.36 OPR/98.0.0.0" etag="uxzALmPljuirrH84_FWV" version="21.2.9" type="device" pages="2">
  <diagram name="Page-1" id="QE5319cS4MTOF8p-dDFq">
    <mxGraphModel dx="1010" dy="542" grid="1" gridSize="10" guides="1" tooltips="1" connect="1" arrows="1" fold="1" page="1" pageScale="1" pageWidth="850" pageHeight="1100" math="0" shadow="0">
      <root>
        <mxCell id="0" />
        <mxCell id="1" parent="0" />
        <mxCell id="ld9TOkLavdq0CLLOnAKi-1" value="main(argc, argv* [])" style="rounded=0;whiteSpace=wrap;html=1;" vertex="1" parent="1">
          <mxGeometry x="330" y="40" width="200" height="60" as="geometry" />
        </mxCell>
        <mxCell id="ld9TOkLavdq0CLLOnAKi-2" value="if(argc &amp;gt; 2 &amp;amp;&amp;amp; argc &amp;lt;4)" style="rhombus;whiteSpace=wrap;html=1;" vertex="1" parent="1">
          <mxGeometry x="380" y="170" width="100" height="90" as="geometry" />
        </mxCell>
        <mxCell id="ld9TOkLavdq0CLLOnAKi-3" value="" style="endArrow=classic;html=1;rounded=0;" edge="1" parent="1">
          <mxGeometry width="50" height="50" relative="1" as="geometry">
            <mxPoint x="430" y="110" as="sourcePoint" />
            <mxPoint x="430" y="170" as="targetPoint" />
          </mxGeometry>
        </mxCell>
        <mxCell id="ld9TOkLavdq0CLLOnAKi-4" value="false" style="endArrow=classic;html=1;rounded=0;exitX=1;exitY=0.5;exitDx=0;exitDy=0;" edge="1" parent="1" source="ld9TOkLavdq0CLLOnAKi-2">
          <mxGeometry width="50" height="50" relative="1" as="geometry">
            <mxPoint x="400" y="300" as="sourcePoint" />
            <mxPoint x="610" y="210" as="targetPoint" />
          </mxGeometry>
        </mxCell>
        <mxCell id="ld9TOkLavdq0CLLOnAKi-5" value="exit&amp;nbsp;" style="whiteSpace=wrap;html=1;aspect=fixed;" vertex="1" parent="1">
          <mxGeometry x="610" y="170" width="80" height="80" as="geometry" />
        </mxCell>
        <mxCell id="ld9TOkLavdq0CLLOnAKi-6" value="" style="endArrow=classic;html=1;rounded=0;exitX=0.5;exitY=1;exitDx=0;exitDy=0;" edge="1" parent="1" source="ld9TOkLavdq0CLLOnAKi-2">
          <mxGeometry width="50" height="50" relative="1" as="geometry">
            <mxPoint x="400" y="450" as="sourcePoint" />
            <mxPoint x="430" y="330" as="targetPoint" />
          </mxGeometry>
        </mxCell>
        <mxCell id="ld9TOkLavdq0CLLOnAKi-7" value="if (fbmp != NULL)" style="rounded=0;whiteSpace=wrap;html=1;" vertex="1" parent="1">
          <mxGeometry x="380" y="330" width="120" height="60" as="geometry" />
        </mxCell>
        <mxCell id="ld9TOkLavdq0CLLOnAKi-8" value="true" style="endArrow=classic;html=1;rounded=0;exitX=0.5;exitY=1;exitDx=0;exitDy=0;" edge="1" parent="1" source="ld9TOkLavdq0CLLOnAKi-7">
          <mxGeometry width="50" height="50" relative="1" as="geometry">
            <mxPoint x="400" y="450" as="sourcePoint" />
            <mxPoint x="440" y="460" as="targetPoint" />
          </mxGeometry>
        </mxCell>
        <mxCell id="ld9TOkLavdq0CLLOnAKi-9" value="&#xa;&lt;div style=&quot;color: rgb(212, 212, 212); background-color: rgb(30, 30, 30); font-family: Consolas, &amp;quot;Courier New&amp;quot;, monospace; font-weight: normal; font-size: 14px; line-height: 19px;&quot;&gt;&lt;div&gt;&lt;span style=&quot;color: #dcdcaa;&quot;&gt;fread&lt;/span&gt;&lt;span style=&quot;color: #d4d4d4;&quot;&gt;(&lt;/span&gt;&lt;span style=&quot;color: #9cdcfe;&quot;&gt;pHeader&lt;/span&gt;&lt;span style=&quot;color: #d4d4d4;&quot;&gt;,&lt;/span&gt;&lt;span style=&quot;color: #569cd6;&quot;&gt;sizeof&lt;/span&gt;&lt;span style=&quot;color: #d4d4d4;&quot;&gt;(&lt;/span&gt;&lt;span style=&quot;color: #4ec9b0;&quot;&gt;bmpHeader&lt;/span&gt;&lt;span style=&quot;color: #d4d4d4;&quot;&gt;),&lt;/span&gt;&lt;span style=&quot;color: #b5cea8;&quot;&gt;1&lt;/span&gt;&lt;span style=&quot;color: #d4d4d4;&quot;&gt;,&lt;/span&gt;&lt;span style=&quot;color: #9cdcfe;&quot;&gt;fbmp&lt;/span&gt;&lt;span style=&quot;color: #d4d4d4;&quot;&gt;)&lt;/span&gt;&lt;/div&gt;&lt;/div&gt;&#xa;&#xa;" style="rounded=0;whiteSpace=wrap;html=1;" vertex="1" parent="1">
          <mxGeometry x="250" y="460" width="450" height="60" as="geometry" />
        </mxCell>
        <mxCell id="ld9TOkLavdq0CLLOnAKi-10" value="false" style="endArrow=classic;html=1;rounded=0;exitX=1;exitY=0.5;exitDx=0;exitDy=0;entryX=0;entryY=1;entryDx=0;entryDy=0;" edge="1" parent="1" source="ld9TOkLavdq0CLLOnAKi-7" target="ld9TOkLavdq0CLLOnAKi-5">
          <mxGeometry width="50" height="50" relative="1" as="geometry">
            <mxPoint x="400" y="450" as="sourcePoint" />
            <mxPoint x="450" y="400" as="targetPoint" />
          </mxGeometry>
        </mxCell>
        <mxCell id="ld9TOkLavdq0CLLOnAKi-11" value="&#xa;&lt;div style=&quot;color: rgb(212, 212, 212); background-color: rgb(30, 30, 30); font-family: Consolas, &amp;quot;Courier New&amp;quot;, monospace; font-weight: normal; font-size: 14px; line-height: 19px;&quot;&gt;&lt;div&gt;&lt;span style=&quot;color: #d4d4d4;&quot;&gt;&amp;nbsp;&lt;/span&gt;&lt;span style=&quot;color: #c586c0;&quot;&gt;if&lt;/span&gt;&lt;span style=&quot;color: #d4d4d4;&quot;&gt;(&lt;/span&gt;&lt;span style=&quot;color: #9cdcfe;&quot;&gt;pHeader&lt;/span&gt;&lt;span style=&quot;color: #d4d4d4;&quot;&gt;-&amp;gt;&lt;/span&gt;&lt;span style=&quot;color: #9cdcfe;&quot;&gt;BMP&lt;/span&gt;&lt;span style=&quot;color: #d4d4d4;&quot;&gt; != &lt;/span&gt;&lt;span style=&quot;color: #b5cea8;&quot;&gt;0x4d42&lt;/span&gt;&lt;span style=&quot;color: #d4d4d4;&quot;&gt;)&lt;/span&gt;&lt;/div&gt;&lt;/div&gt;&#xa;&#xa;" style="rhombus;whiteSpace=wrap;html=1;" vertex="1" parent="1">
          <mxGeometry x="370" y="590" width="140" height="140" as="geometry" />
        </mxCell>
        <mxCell id="ld9TOkLavdq0CLLOnAKi-12" value="" style="endArrow=classic;html=1;rounded=0;entryX=0.5;entryY=0;entryDx=0;entryDy=0;exitX=0.423;exitY=1.06;exitDx=0;exitDy=0;exitPerimeter=0;" edge="1" parent="1" source="ld9TOkLavdq0CLLOnAKi-9" target="ld9TOkLavdq0CLLOnAKi-11">
          <mxGeometry width="50" height="50" relative="1" as="geometry">
            <mxPoint x="400" y="650" as="sourcePoint" />
            <mxPoint x="450" y="600" as="targetPoint" />
          </mxGeometry>
        </mxCell>
        <mxCell id="ld9TOkLavdq0CLLOnAKi-13" value="true" style="endArrow=classic;html=1;rounded=0;exitX=1;exitY=0.5;exitDx=0;exitDy=0;" edge="1" parent="1" source="ld9TOkLavdq0CLLOnAKi-11">
          <mxGeometry width="50" height="50" relative="1" as="geometry">
            <mxPoint x="400" y="650" as="sourcePoint" />
            <mxPoint x="670" y="660" as="targetPoint" />
          </mxGeometry>
        </mxCell>
        <mxCell id="ld9TOkLavdq0CLLOnAKi-15" value="exit" style="whiteSpace=wrap;html=1;aspect=fixed;" vertex="1" parent="1">
          <mxGeometry x="670" y="620" width="80" height="80" as="geometry" />
        </mxCell>
        <mxCell id="ld9TOkLavdq0CLLOnAKi-16" value="" style="endArrow=classic;html=1;rounded=0;exitX=0.5;exitY=1;exitDx=0;exitDy=0;" edge="1" parent="1" source="ld9TOkLavdq0CLLOnAKi-11">
          <mxGeometry width="50" height="50" relative="1" as="geometry">
            <mxPoint x="400" y="850" as="sourcePoint" />
            <mxPoint x="440" y="800" as="targetPoint" />
          </mxGeometry>
        </mxCell>
        <mxCell id="ld9TOkLavdq0CLLOnAKi-17" value="Calculate offset to image data&lt;br&gt;calculate image data size&lt;br&gt;allocate char[offset] array" style="rounded=0;whiteSpace=wrap;html=1;" vertex="1" parent="1">
          <mxGeometry x="260" y="800" width="380" height="60" as="geometry" />
        </mxCell>
        <mxCell id="ld9TOkLavdq0CLLOnAKi-18" value="" style="endArrow=classic;html=1;rounded=0;exitX=0.483;exitY=1.06;exitDx=0;exitDy=0;exitPerimeter=0;" edge="1" parent="1" source="ld9TOkLavdq0CLLOnAKi-17">
          <mxGeometry width="50" height="50" relative="1" as="geometry">
            <mxPoint x="400" y="740" as="sourcePoint" />
            <mxPoint x="444" y="930" as="targetPoint" />
          </mxGeometry>
        </mxCell>
        <mxCell id="ld9TOkLavdq0CLLOnAKi-19" value="&#xa;&lt;div style=&quot;color: rgb(212, 212, 212); background-color: rgb(30, 30, 30); font-family: Consolas, &amp;quot;Courier New&amp;quot;, monospace; font-weight: normal; font-size: 14px; line-height: 19px;&quot;&gt;&lt;div&gt;&lt;span style=&quot;color: #dcdcaa;&quot;&gt;fread&lt;/span&gt;&lt;span style=&quot;color: #d4d4d4;&quot;&gt;(&lt;/span&gt;&lt;span style=&quot;color: #9cdcfe;&quot;&gt;ImageDataOffset&lt;/span&gt;&lt;span style=&quot;color: #d4d4d4;&quot;&gt;,&lt;/span&gt;&lt;span style=&quot;color: #569cd6;&quot;&gt;sizeof&lt;/span&gt;&lt;span style=&quot;color: #d4d4d4;&quot;&gt;(&lt;/span&gt;&lt;span style=&quot;color: #569cd6;&quot;&gt;char&lt;/span&gt;&lt;span style=&quot;color: #d4d4d4;&quot;&gt;),&lt;/span&gt;&lt;span style=&quot;color: #9cdcfe;&quot;&gt;offset&lt;/span&gt;&lt;span style=&quot;color: #d4d4d4;&quot;&gt;,&lt;/span&gt;&lt;span style=&quot;color: #9cdcfe;&quot;&gt;fbmp&lt;/span&gt;&lt;/div&gt;&lt;/div&gt;&#xa;&#xa;" style="rounded=0;whiteSpace=wrap;html=1;" vertex="1" parent="1">
          <mxGeometry x="210" y="930" width="480" height="70" as="geometry" />
        </mxCell>
      </root>
    </mxGraphModel>
  </diagram>
  <diagram id="QaCyxCQnVoNpbxAwumVr" name="Page-2">
    <mxGraphModel dx="1010" dy="1642" grid="1" gridSize="10" guides="1" tooltips="1" connect="1" arrows="1" fold="1" page="1" pageScale="1" pageWidth="850" pageHeight="1100" math="0" shadow="0">
      <root>
        <mxCell id="0" />
        <mxCell id="1" parent="0" />
        <mxCell id="I543h71UUkP9vr96VXoQ-1" value="&#xa;&lt;div style=&quot;color: rgb(212, 212, 212); background-color: rgb(30, 30, 30); font-family: Consolas, &amp;quot;Courier New&amp;quot;, monospace; font-weight: normal; font-size: 14px; line-height: 19px;&quot;&gt;&lt;div&gt;&lt;span style=&quot;color: #dcdcaa;&quot;&gt;fread&lt;/span&gt;&lt;span style=&quot;color: #d4d4d4;&quot;&gt;(&lt;/span&gt;&lt;span style=&quot;color: #9cdcfe;&quot;&gt;ImageDataOffset&lt;/span&gt;&lt;span style=&quot;color: #d4d4d4;&quot;&gt;,&lt;/span&gt;&lt;span style=&quot;color: #569cd6;&quot;&gt;sizeof&lt;/span&gt;&lt;span style=&quot;color: #d4d4d4;&quot;&gt;(&lt;/span&gt;&lt;span style=&quot;color: #569cd6;&quot;&gt;char&lt;/span&gt;&lt;span style=&quot;color: #d4d4d4;&quot;&gt;),&lt;/span&gt;&lt;span style=&quot;color: #9cdcfe;&quot;&gt;offset&lt;/span&gt;&lt;span style=&quot;color: #d4d4d4;&quot;&gt;,&lt;/span&gt;&lt;span style=&quot;color: #9cdcfe;&quot;&gt;fbmp&lt;/span&gt;&lt;/div&gt;&lt;/div&gt;&#xa;&#xa;" style="rounded=0;whiteSpace=wrap;html=1;" vertex="1" parent="1">
          <mxGeometry x="200" y="-1080" width="480" height="70" as="geometry" />
        </mxCell>
        <mxCell id="I543h71UUkP9vr96VXoQ-2" value="" style="endArrow=classic;html=1;rounded=0;exitX=0.5;exitY=1;exitDx=0;exitDy=0;" edge="1" parent="1" source="I543h71UUkP9vr96VXoQ-1">
          <mxGeometry width="50" height="50" relative="1" as="geometry">
            <mxPoint x="330" y="-930" as="sourcePoint" />
            <mxPoint x="440" y="-950" as="targetPoint" />
          </mxGeometry>
        </mxCell>
        <mxCell id="I543h71UUkP9vr96VXoQ-3" value="get width and height&amp;nbsp; from input file header&lt;br&gt;and&amp;nbsp;&lt;br&gt;read Image data into char array" style="rounded=0;whiteSpace=wrap;html=1;" vertex="1" parent="1">
          <mxGeometry x="200" y="-950" width="480" height="120" as="geometry" />
        </mxCell>
        <mxCell id="I543h71UUkP9vr96VXoQ-4" value="" style="endArrow=classic;html=1;rounded=0;exitX=0.488;exitY=1.033;exitDx=0;exitDy=0;exitPerimeter=0;" edge="1" parent="1" source="I543h71UUkP9vr96VXoQ-3">
          <mxGeometry width="50" height="50" relative="1" as="geometry">
            <mxPoint x="330" y="-650" as="sourcePoint" />
            <mxPoint x="434" y="-750" as="targetPoint" />
          </mxGeometry>
        </mxCell>
        <mxCell id="I543h71UUkP9vr96VXoQ-5" value="&#xa;&lt;div style=&quot;color: rgb(212, 212, 212); background-color: rgb(30, 30, 30); font-family: Consolas, &amp;quot;Courier New&amp;quot;, monospace; font-weight: normal; font-size: 14px; line-height: 19px;&quot;&gt;&lt;div&gt;&lt;span style=&quot;color: #dcdcaa;&quot;&gt;BMP_Image_data_handler&lt;/span&gt;&lt;span style=&quot;color: #d4d4d4;&quot;&gt;(&lt;/span&gt;&lt;span style=&quot;color: #9cdcfe;&quot;&gt;ImageFile&lt;/span&gt;&lt;span style=&quot;color: #d4d4d4;&quot;&gt;, *&lt;/span&gt;&lt;span style=&quot;color: #9cdcfe;&quot;&gt;pHeader&lt;/span&gt;&lt;span style=&quot;color: #d4d4d4;&quot;&gt;);&lt;/span&gt;&lt;/div&gt;&lt;/div&gt;&#xa;&#xa;" style="rounded=0;whiteSpace=wrap;html=1;" vertex="1" parent="1">
          <mxGeometry x="200" y="-750" width="490" height="70" as="geometry" />
        </mxCell>
        <mxCell id="I543h71UUkP9vr96VXoQ-9" value="" style="endArrow=classic;html=1;rounded=0;exitX=0.474;exitY=0.971;exitDx=0;exitDy=0;exitPerimeter=0;" edge="1" parent="1" source="I543h71UUkP9vr96VXoQ-5">
          <mxGeometry width="50" height="50" relative="1" as="geometry">
            <mxPoint x="330" y="-650" as="sourcePoint" />
            <mxPoint x="430" y="-600" as="targetPoint" />
          </mxGeometry>
        </mxCell>
        <mxCell id="I543h71UUkP9vr96VXoQ-11" value="menu" style="rhombus;whiteSpace=wrap;html=1;" vertex="1" parent="1">
          <mxGeometry x="340" y="-600" width="180" height="180" as="geometry" />
        </mxCell>
        <mxCell id="I543h71UUkP9vr96VXoQ-15" value="" style="curved=1;endArrow=classic;html=1;rounded=0;exitX=0.5;exitY=1;exitDx=0;exitDy=0;" edge="1" parent="1" source="I543h71UUkP9vr96VXoQ-11">
          <mxGeometry width="50" height="50" relative="1" as="geometry">
            <mxPoint x="330" y="-370" as="sourcePoint" />
            <mxPoint x="430" y="-640" as="targetPoint" />
            <Array as="points">
              <mxPoint x="380" y="-370" />
              <mxPoint x="300" y="-480" />
              <mxPoint x="280" y="-580" />
            </Array>
          </mxGeometry>
        </mxCell>
        <mxCell id="I543h71UUkP9vr96VXoQ-16" value="1" style="edgeLabel;html=1;align=center;verticalAlign=middle;resizable=0;points=[];" vertex="1" connectable="0" parent="I543h71UUkP9vr96VXoQ-15">
          <mxGeometry x="-0.0754" y="-6" relative="1" as="geometry">
            <mxPoint as="offset" />
          </mxGeometry>
        </mxCell>
        <mxCell id="I543h71UUkP9vr96VXoQ-17" value="get width and height form bmp header and&lt;br&gt;&lt;div style=&quot;color: rgb(212, 212, 212); background-color: rgb(30, 30, 30); font-family: Consolas, &amp;quot;Courier New&amp;quot;, monospace; font-size: 14px; line-height: 19px;&quot;&gt;&lt;div&gt;&amp;nbsp; &amp;nbsp; fwrite(&lt;span style=&quot;color: #9cdcfe;&quot;&gt;pHeader&lt;/span&gt;,&lt;span style=&quot;color: #569cd6;&quot;&gt;sizeof&lt;/span&gt;(&lt;span style=&quot;color: #4ec9b0;&quot;&gt;bmpHeader&lt;/span&gt;),&lt;span style=&quot;color: #b5cea8;&quot;&gt;1&lt;/span&gt;,&lt;span style=&quot;color: #9cdcfe;&quot;&gt;mFile&lt;/span&gt;);&lt;/div&gt;&lt;br&gt;&lt;div&gt;&amp;nbsp; &amp;nbsp; &lt;span style=&quot;color: #dcdcaa;&quot;&gt;fwrite&lt;/span&gt;(&lt;span style=&quot;color: #9cdcfe;&quot;&gt;ImageDataOffset&lt;/span&gt;,&lt;span style=&quot;color: #569cd6;&quot;&gt;sizeof&lt;/span&gt;(&lt;span style=&quot;color: #569cd6;&quot;&gt;char&lt;/span&gt;),&lt;span style=&quot;color: #9cdcfe;&quot;&gt;offset&lt;/span&gt;,&lt;span style=&quot;color: #9cdcfe;&quot;&gt;mFile&lt;/span&gt;);&lt;/div&gt;&lt;/div&gt;" style="rounded=0;whiteSpace=wrap;html=1;" vertex="1" parent="1">
          <mxGeometry x="175" y="-360" width="510" height="110" as="geometry" />
        </mxCell>
        <mxCell id="I543h71UUkP9vr96VXoQ-20" value="go to" style="endArrow=classic;html=1;rounded=0;entryX=0.5;entryY=0;entryDx=0;entryDy=0;" edge="1" parent="1" target="I543h71UUkP9vr96VXoQ-17">
          <mxGeometry width="50" height="50" relative="1" as="geometry">
            <mxPoint x="430" y="-420" as="sourcePoint" />
            <mxPoint x="380" y="-420" as="targetPoint" />
          </mxGeometry>
        </mxCell>
        <mxCell id="I543h71UUkP9vr96VXoQ-21" value="" style="endArrow=classic;html=1;rounded=0;exitX=0.5;exitY=1;exitDx=0;exitDy=0;" edge="1" parent="1" source="I543h71UUkP9vr96VXoQ-17">
          <mxGeometry width="50" height="50" relative="1" as="geometry">
            <mxPoint x="330" y="-200" as="sourcePoint" />
            <mxPoint x="430" y="-210" as="targetPoint" />
          </mxGeometry>
        </mxCell>
        <mxCell id="I543h71UUkP9vr96VXoQ-22" value="write image data pixel by pixel&amp;nbsp;" style="rounded=0;whiteSpace=wrap;html=1;" vertex="1" parent="1">
          <mxGeometry x="250" y="-210" width="380" height="60" as="geometry" />
        </mxCell>
        <mxCell id="I543h71UUkP9vr96VXoQ-23" value="" style="endArrow=classic;html=1;rounded=0;exitX=0.5;exitY=1;exitDx=0;exitDy=0;" edge="1" parent="1" source="I543h71UUkP9vr96VXoQ-22">
          <mxGeometry width="50" height="50" relative="1" as="geometry">
            <mxPoint x="330" y="-200" as="sourcePoint" />
            <mxPoint x="440" y="-90" as="targetPoint" />
          </mxGeometry>
        </mxCell>
        <mxCell id="I543h71UUkP9vr96VXoQ-24" value="free all allocated memory" style="rounded=0;whiteSpace=wrap;html=1;" vertex="1" parent="1">
          <mxGeometry x="250" y="-90" width="410" height="60" as="geometry" />
        </mxCell>
        <mxCell id="I543h71UUkP9vr96VXoQ-25" value="" style="endArrow=classic;html=1;rounded=0;exitX=1;exitY=0.5;exitDx=0;exitDy=0;" edge="1" parent="1" source="I543h71UUkP9vr96VXoQ-24">
          <mxGeometry width="50" height="50" relative="1" as="geometry">
            <mxPoint x="330" y="-100" as="sourcePoint" />
            <mxPoint x="730" y="-60" as="targetPoint" />
          </mxGeometry>
        </mxCell>
        <mxCell id="I543h71UUkP9vr96VXoQ-26" value="return&amp;nbsp; 0" style="rounded=0;whiteSpace=wrap;html=1;" vertex="1" parent="1">
          <mxGeometry x="730" y="-80" width="80" height="50" as="geometry" />
        </mxCell>
      </root>
    </mxGraphModel>
  </diagram>
</mxfile>
